<svg width="16" height="16" viewBox="0 0 16 16" fill="none" xmlns="http://www.w3.org/2000/svg">
    <g clip-path="url(#clip0)">
        <path d="M0.666016 8.00033C0.666016 8.00033 3.33268 2.66699 7.99935 2.66699C12.666 2.66699 15.3327 8.00033 15.3327 8.00033C15.3327 8.00033 12.666 13.3337 7.99935 13.3337C3.33268 13.3337 0.666016 8.00033 0.666016 8.00033Z" stroke="#EE7D22" stroke-width="2" stroke-linecap="round" stroke-linejoin="round" />
        <path d="M8 10C9.10457 10 10 9.10457 10 8C10 6.89543 9.10457 6 8 6C6.89543 6 6 6.89543 6 8C6 9.10457 6.89543 10 8 10Z" stroke="#EE7D22" stroke-width="2" stroke-linecap="round" stroke-linejoin="round" />
    </g>
    <defs>
        <clipPath id="clip0">
            <rect width="16" height="16" fill="white" />
        </clipPath>
    </defs>
</svg>