<svg width="20" height="20" viewBox="0 0 20 20" fill="none" xmlns="http://www.w3.org/2000/svg">
    <path fill-rule="evenodd" clip-rule="evenodd" d="M1.33325 6.25C1.33325 6.80228 1.78097 7.25 2.33325 7.25H2.41668V16C2.41668 16.5523 2.8644 17 3.41668 17H4.66668C5.21897 17 5.66668 16.5523 5.66668 16V7.25H5.74992C6.3022 7.25 6.74992 6.80228 6.74992 6.25V5C6.74992 4.44772 6.3022 4 5.74992 4H2.33325C1.78097 4 1.33325 4.44772 1.33325 5L1.33325 6.25Z" fill="#0B7640" />
    <path fill-rule="evenodd" clip-rule="evenodd" d="M7.29169 6.25C7.29169 6.80228 7.7394 7.25 8.29169 7.25H8.37512V16C8.37512 16.5523 8.82283 17 9.37512 17H10.6251C11.1774 17 11.6251 16.5523 11.6251 16V7.25H11.7084C12.2606 7.25 12.7084 6.80228 12.7084 6.25V5C12.7084 4.44772 12.2606 4 11.7084 4H8.29169C7.7394 4 7.29169 4.44772 7.29169 5L7.29169 6.25Z" fill="#0B7640" />
    <path fill-rule="evenodd" clip-rule="evenodd" d="M13.2498 6.25C13.2498 6.80228 13.6975 7.25 14.2498 7.25H14.3332V16C14.3332 16.5523 14.781 17 15.3332 17H16.5832C17.1355 17 17.5832 16.5523 17.5832 16V7.25H17.6665C18.2188 7.25 18.6665 6.80228 18.6665 6.25V5C18.6665 4.44772 18.2188 4 17.6665 4H14.2498C13.6975 4 13.2498 4.44772 13.2498 5L13.2498 6.25Z" fill="#0B7640" />
</svg>