<svg width="34" height="48" viewBox="0 0 34 48" fill="none" xmlns="http://www.w3.org/2000/svg">
    <path d="M8.56445 36.1475H9.54736L6.7168 44H5.81445L3 36.1475H3.9668L5.77148 41.2285C5.97917 41.8122 6.14388 42.3797 6.26562 42.9312C6.39453 42.3511 6.56283 41.7728 6.77051 41.1963L8.56445 36.1475ZM11.3896 44H10.498V38.1133H11.3896V44ZM10.4229 36.5181C10.4229 36.314 10.473 36.1654 10.5732 36.0723C10.6735 35.9756 10.7988 35.9272 10.9492 35.9272C11.0924 35.9272 11.216 35.9756 11.3198 36.0723C11.4237 36.1689 11.4756 36.3175 11.4756 36.5181C11.4756 36.7186 11.4237 36.869 11.3198 36.9692C11.216 37.0659 11.0924 37.1143 10.9492 37.1143C10.7988 37.1143 10.6735 37.0659 10.5732 36.9692C10.473 36.869 10.4229 36.7186 10.4229 36.5181ZM17.2871 43.2104H17.2388C16.827 43.8084 16.2111 44.1074 15.3911 44.1074C14.6213 44.1074 14.0215 43.8442 13.5918 43.3179C13.1657 42.7915 12.9526 42.0431 12.9526 41.0728C12.9526 40.1024 13.1675 39.3486 13.5972 38.8115C14.0269 38.2744 14.6248 38.0059 15.3911 38.0059C16.1896 38.0059 16.8019 38.2959 17.228 38.876H17.2979L17.2603 38.4517L17.2388 38.0381V35.6426H18.1304V44H17.4053L17.2871 43.2104ZM15.5039 43.3608C16.1126 43.3608 16.5531 43.1961 16.8252 42.8667C17.1009 42.5337 17.2388 41.9984 17.2388 41.2607V41.0728C17.2388 40.2384 17.0991 39.644 16.8198 39.2896C16.5441 38.9315 16.1019 38.7524 15.4932 38.7524C14.9704 38.7524 14.5693 38.9565 14.29 39.3647C14.0143 39.7694 13.8765 40.3423 13.8765 41.0835C13.8765 41.8354 14.0143 42.403 14.29 42.7861C14.5658 43.1693 14.9704 43.3608 15.5039 43.3608ZM22.5132 44.1074C21.6431 44.1074 20.9556 43.8424 20.4507 43.3125C19.9494 42.7826 19.6987 42.0467 19.6987 41.105C19.6987 40.1561 19.9315 39.4023 20.397 38.8438C20.866 38.2852 21.4945 38.0059 22.2822 38.0059C23.0199 38.0059 23.6035 38.2493 24.0332 38.7363C24.4629 39.2197 24.6777 39.8589 24.6777 40.6538V41.2178H20.6226C20.6405 41.9089 20.8141 42.4334 21.1436 42.7915C21.4766 43.1496 21.9438 43.3286 22.5454 43.3286C23.1792 43.3286 23.8058 43.1961 24.4253 42.9312V43.7261C24.1102 43.8621 23.8112 43.9588 23.5283 44.0161C23.249 44.077 22.9106 44.1074 22.5132 44.1074ZM22.2715 38.7524C21.7988 38.7524 21.4211 38.9064 21.1382 39.2144C20.8589 39.5223 20.6942 39.9484 20.644 40.4927H23.7217C23.7217 39.9305 23.5964 39.5008 23.3457 39.2036C23.0951 38.9028 22.737 38.7524 22.2715 38.7524ZM31.2842 41.0513C31.2842 42.0109 31.0425 42.7611 30.5591 43.3018C30.0757 43.8389 29.4079 44.1074 28.5557 44.1074C28.0293 44.1074 27.562 43.9839 27.1538 43.7368C26.7456 43.4897 26.4305 43.1353 26.2085 42.6733C25.9865 42.2114 25.8755 41.6707 25.8755 41.0513C25.8755 40.0916 26.1154 39.3451 26.5952 38.8115C27.075 38.2744 27.741 38.0059 28.5933 38.0059C29.4168 38.0059 30.0703 38.2798 30.5537 38.8276C31.0407 39.3755 31.2842 40.1167 31.2842 41.0513ZM26.7993 41.0513C26.7993 41.8032 26.9497 42.3761 27.2505 42.77C27.5513 43.1639 27.9935 43.3608 28.5771 43.3608C29.1608 43.3608 29.603 43.1657 29.9038 42.7754C30.2082 42.3815 30.3604 41.8068 30.3604 41.0513C30.3604 40.3029 30.2082 39.7354 29.9038 39.3486C29.603 38.9583 29.1572 38.7632 28.5664 38.7632C27.9827 38.7632 27.5423 38.9548 27.2451 39.3379C26.9479 39.721 26.7993 40.2922 26.7993 41.0513Z" fill="#333333" />
    <path d="M1 23V9C1 6.79086 2.79086 5 5 5H29C31.2091 5 33 6.79086 33 9V23C33 25.2091 31.2091 27 29 27H5C2.79086 27 1 25.2091 1 23Z" stroke="#4F4F4F" stroke-linecap="round" stroke-linejoin="round" />
    <path d="M13 10.5V21.5L23.5 16L13 10.5Z" stroke="#4F4F4F" stroke-linecap="round" stroke-linejoin="round" />
</svg>