<svg width="32" height="40" viewBox="0 0 32 40" fill="none" xmlns="http://www.w3.org/2000/svg">
<path d="M31.4866 35.0757L26.4264 26.3112C27.2657 25.6044 27.8457 24.5993 28.0007 23.4603C28.1059 22.6858 28.5042 21.9958 29.1223 21.5173C30.7245 20.2771 31.3076 18.1013 30.5402 16.226C30.2441 15.5026 30.2441 14.7058 30.5402 13.9825C31.3076 12.1072 30.7245 9.93143 29.1223 8.69116C28.5042 8.21273 28.1058 7.5227 28.0007 6.74821C27.7276 4.74056 26.1347 3.14766 24.127 2.87473C23.3526 2.7694 22.6626 2.37106 22.1842 1.75299C20.9439 0.150718 18.7682 -0.432261 16.8928 0.335122C16.1694 0.631182 15.3726 0.631182 14.6493 0.335122C12.7742 -0.432339 10.5982 0.150718 9.35797 1.75299C8.87954 2.37106 8.18951 2.7694 7.41502 2.87473C5.40729 3.14774 3.81447 4.74056 3.54154 6.74829C3.43621 7.52278 3.03787 8.21281 2.41981 8.69124C0.817531 9.93151 0.234551 12.1074 1.00193 13.9826C1.29799 14.7059 1.29799 15.5027 1.00193 16.2261C0.234473 18.1013 0.817531 20.2771 2.41981 21.5174C3.03787 21.9958 3.43621 22.6859 3.54154 23.4603C3.69844 24.6143 4.29197 25.6306 5.14905 26.3386L0.104688 35.0757C-0.0533049 35.3494 -0.0309577 35.6913 0.161494 35.942C0.353867 36.1926 0.678213 36.3029 0.98365 36.2211L5.38049 35.0429L6.55356 39.4209C6.63537 39.7261 6.89299 39.952 7.20632 39.9933C7.24054 39.9978 7.27469 40 7.30852 40C7.58497 40 7.84423 39.8531 7.98495 39.6093L13.4281 30.1816C13.8408 30.1371 14.2518 30.0361 14.6492 29.8734C15.3726 29.5773 16.1695 29.5773 16.8927 29.8734C17.3071 30.043 17.7362 30.1464 18.1667 30.1876L23.6062 39.6093C23.747 39.8532 24.0062 40 24.2827 40C24.3166 40 24.3506 39.9978 24.385 39.9933C24.6983 39.952 24.9559 39.7261 25.0377 39.4209L26.2109 35.0429L30.6077 36.2211C30.9127 36.3029 31.2374 36.1928 31.4298 35.942C31.6221 35.6913 31.6446 35.3494 31.4866 35.0757ZM7.57473 37.1943L6.68764 33.8838C6.63396 33.6836 6.50309 33.5129 6.32361 33.4093C6.14412 33.3057 5.93097 33.2776 5.7307 33.3312L2.40121 34.2233L6.50676 27.1123C6.79704 27.2162 7.10091 27.2911 7.41494 27.3339C8.18944 27.4392 8.87946 27.8375 9.35789 28.4556C9.9651 29.24 10.7967 29.7795 11.7074 30.0365L7.57473 37.1943ZM14.0573 28.4271C12.8298 28.9296 11.4056 28.5479 10.5936 27.4991C9.86274 26.5549 8.80859 25.9462 7.62544 25.7854C6.31126 25.6067 5.26852 24.5641 5.0899 23.2498C4.92902 22.0666 4.32041 21.0126 3.3762 20.2816C2.32737 19.4698 1.94575 18.0454 2.44809 16.8179C2.90043 15.7129 2.90043 14.4957 2.44809 13.3906C1.94575 12.1632 2.32737 10.7388 3.3762 9.92698C4.32041 9.19608 4.92902 8.14202 5.0899 6.95879C5.2686 5.6446 6.31126 4.60187 7.62544 4.42317C8.80859 4.26236 9.86274 3.65375 10.5936 2.70955C11.1662 1.96982 12.0431 1.56203 12.9411 1.56203C13.3164 1.56203 13.6954 1.63337 14.0572 1.78144C15.1624 2.23369 16.3796 2.23369 17.4846 1.78144C18.712 1.27902 20.1364 1.66071 20.9483 2.70955C21.6791 3.65375 22.7332 4.26236 23.9163 4.42317C25.2305 4.60187 26.2732 5.64453 26.4519 6.95879C26.6128 8.14202 27.2214 9.19608 28.1656 9.92698C29.2144 10.7388 29.5961 12.1631 29.0937 13.3906C28.6415 14.4957 28.6415 15.7129 29.0937 16.8179C29.5961 18.0454 29.2144 19.4698 28.1656 20.2816C27.2214 21.0125 26.6128 22.0666 26.4519 23.2497C26.2732 24.564 25.2305 25.6067 23.9164 25.7853C22.7331 25.9461 21.6791 26.5547 20.9482 27.499C20.1363 28.5479 18.712 28.9295 17.4846 28.4271C16.3795 27.9749 15.1625 27.9749 14.0573 28.4271ZM25.8605 33.3312C25.4435 33.2194 25.0153 33.467 24.9035 33.8838L24.0164 37.1943L19.8767 30.0241C20.7708 29.7625 21.5862 29.2279 22.1841 28.4556C22.6625 27.8374 23.3525 27.4391 24.1269 27.3339C24.4557 27.2892 24.7731 27.2084 25.0755 27.0969L29.1899 34.2233L25.8605 33.3312Z" fill="white"/>
<path d="M12.22 12.2143L9.78892 14.6452C9.64241 14.7918 9.56006 14.9905 9.56006 15.1978C9.56006 15.405 9.64241 15.6038 9.78892 15.7503L14.3484 20.3099C14.495 20.4564 14.6937 20.5387 14.901 20.5387C15.1082 20.5387 15.307 20.4564 15.4535 20.3099L21.8021 13.9612C22.1072 13.6561 22.1072 13.1614 21.8021 12.8562L19.3711 10.4252C19.2245 10.2786 19.0258 10.1963 18.8186 10.1963C18.6114 10.1963 18.4126 10.2786 18.2661 10.4252L14.901 13.7903L13.3252 12.2143C13.1787 12.0678 12.9799 11.9855 12.7727 11.9855C12.5653 11.9854 12.3665 12.0677 12.22 12.2143ZM14.3484 15.4478C14.4949 15.5943 14.6937 15.6767 14.9009 15.6767C15.1081 15.6767 15.3069 15.5943 15.4534 15.4478L18.8184 12.0827L20.1445 13.4087L14.9009 18.6523L11.4464 15.1978L12.7725 13.8718L14.3484 15.4478Z" fill="white"/>
<path d="M25.9533 15.3673C25.9533 13.2917 25.3313 11.2955 24.1545 9.59443C23.0054 7.93347 21.4091 6.66335 19.5384 5.92152C19.1371 5.76251 18.6831 5.95872 18.524 6.35987C18.3649 6.76103 18.5612 7.21516 18.9623 7.37424C22.2599 8.68187 24.3907 11.8194 24.3907 15.3673C24.3907 20.1067 20.5349 23.9624 15.7956 23.9624C11.0563 23.9624 7.20056 20.1067 7.20056 15.3673C7.20056 11.8193 9.33135 8.68179 12.629 7.37417C13.0301 7.21508 13.2264 6.76095 13.0673 6.35979C12.9082 5.95864 12.454 5.76236 12.0529 5.92145C10.1821 6.66335 8.58584 7.93339 7.43668 9.59435C6.25986 11.2954 5.63782 13.2916 5.63782 15.3673C5.63782 20.9683 10.1946 25.5251 15.7956 25.5251C21.3966 25.5251 25.9533 20.9683 25.9533 15.3673Z" fill="white"/>
<path d="M15.7957 6.77172C16.0012 6.77172 16.2027 6.6889 16.348 6.54278C16.4933 6.39745 16.577 6.19663 16.577 5.99035C16.577 5.78485 16.4934 5.58326 16.348 5.43793C16.2027 5.29259 16.0012 5.20898 15.7957 5.20898C15.5902 5.20898 15.3886 5.29259 15.2432 5.43793C15.0979 5.58326 15.0143 5.78485 15.0143 5.99035C15.0143 6.19663 15.0979 6.39745 15.2432 6.54278C15.3886 6.6889 15.5902 6.77172 15.7957 6.77172Z" fill="white"/>
</svg>
