<svg width="16" height="15" viewBox="0 0 16 15" fill="none" xmlns="http://www.w3.org/2000/svg">
<circle cx="7.87493" cy="7.14764" r="7.05682" fill="#828282"/>
<path d="M5.11353 5.91992L7.87489 3.15856L10.6363 5.91992" stroke="white" stroke-miterlimit="10" stroke-linecap="round" stroke-linejoin="round"/>
<line x1="8.06812" y1="3.65918" x2="8.06811" y2="11.2501" stroke="white" stroke-linecap="round" stroke-linejoin="round"/>
</svg>
