<svg width="27" height="27" viewBox="0 0 27 27" fill="none" xmlns="http://www.w3.org/2000/svg">
<path d="M25.8626 21.0303L21.8655 17.0237C21.0694 16.2289 19.7509 16.2531 18.927 17.0791L16.9133 19.097C16.786 19.0267 16.6544 18.9533 16.5159 18.8754C15.2442 18.1692 13.5037 17.2013 11.6722 15.3642C9.83526 13.5234 8.86861 11.7762 8.16183 10.5009C8.08725 10.3657 8.01579 10.2355 7.94523 10.1118L9.29676 8.75917L9.96123 8.09238C10.7864 7.26513 10.8091 5.94407 10.0148 5.14701L6.01772 1.13993C5.22342 0.343987 3.90438 0.368134 3.07923 1.19538L1.95271 2.33094L1.98349 2.36157C1.60575 2.84466 1.2901 3.40182 1.0552 4.00265C0.838672 4.57457 0.703861 5.12033 0.642218 5.66721C0.114424 10.0527 2.11391 14.0606 7.54027 19.4994C15.0412 27.0167 21.0859 26.4488 21.3466 26.4211C21.9146 26.3531 22.4589 26.2171 23.012 26.0017C23.6063 25.7691 24.1618 25.4531 24.6435 25.0754L24.6681 25.0973L25.8094 23.9772C26.6328 23.1501 26.6566 21.8286 25.8626 21.0303Z" fill="white"/>
</svg>
