<svg width="26" height="31" viewBox="0 0 26 31" fill="none" xmlns="http://www.w3.org/2000/svg">
<path d="M20.2353 9.7041H13.668V16.0872H25.2233C25.2233 16.0872 25.2233 15.6256 25.2233 13.5261C25.2233 11.4265 22.9792 9.7041 20.2353 9.7041Z" fill="white"/>
<path d="M4.98229 9.7041C2.24402 9.7041 0 11.4265 0 13.5261C0 15.6256 0 16.0872 0 16.0872H11.5553V9.7041H4.98229Z" fill="white"/>
<path d="M13.668 17.876V30.0736H19.0139C21.7521 30.0736 23.9961 27.8502 23.9961 25.1371V17.876H13.668Z" fill="white"/>
<path d="M11.5565 17.876V30.0736H6.21063C3.47236 30.0736 1.22266 27.8502 1.22266 25.1371V17.876H11.5565Z" fill="white"/>
<path d="M14.7269 0H10.3184L11.4659 8.58392H13.5793L14.7269 0Z" fill="white"/>
<path d="M16.4156 1.67188L14.9727 8.58404H16.0237L20.3583 1.67188H16.4156Z" fill="white"/>
<path d="M4.72656 2.69043L9.06121 8.58378H10.152L8.92487 2.69043H4.72656Z" fill="white"/>
</svg>
