<svg width="40" height="40" viewBox="0 0 40 40" fill="none" xmlns="http://www.w3.org/2000/svg">
<path fill-rule="evenodd" clip-rule="evenodd" d="M15.28 11.28C15.74 10.28 16 9.18 16 8C16 3.58 12.42 0 8 0C3.58 0 0 3.58 0 8C0 12.42 3.58 16 8 16C9.18 16 10.28 15.74 11.28 15.28L16 20L11.28 24.72C10.28 24.26 9.18 24 8 24C3.58 24 0 27.58 0 32C0 36.42 3.58 40 8 40C12.42 40 16 36.42 16 32C16 30.82 15.74 29.72 15.28 28.72L20 24L34 38H40V36L15.28 11.28ZM8 12C5.8 12 4 10.22 4 8C4 5.78 5.8 4 8 4C10.2 4 12 5.78 12 8C12 10.22 10.2 12 8 12ZM4 32C4 34.22 5.8 36 8 36C10.2 36 12 34.22 12 32C12 29.78 10.2 28 8 28C5.8 28 4 29.78 4 32ZM20 21C19.44 21 19 20.56 19 20C19 19.44 19.44 19 20 19C20.56 19 21 19.44 21 20C21 20.56 20.56 21 20 21ZM22 14L34 2H40V4L26 18L22 14Z" fill="#1A6E3A"/>
</svg>
